[
    {
        "name": "Bengali Movies",
        "logo": "https://seeklogo.com/images/H/hotstar-logo-6A3E165CC3-seeklogo.com.png",
        "sname": "Bengali",
        "ssname": "Works Only In India",
        "streaming": [
            {
                "direct": false,
                "drm": false,
                "name": "Jio Pagla",
                "icon": "https://secure-media1.hotstar.com/t_web_vl_1x/r1/thumbs/PCTV/14/1000207014/PCTV-1000207014-vl.jpg",
                "lice": "abc",
                "link": "1000207014"
            },
            {
                "direct": false,
                "drm": false,
                "name": "Bagh Bandi Khela",
                "icon": "https://img1.hotstar.com/image/upload/f_auto,t_web_vl_1x/sources/r1/cms/prod/5981/205981-v",
                "lice": "abc",
                "link": "1000226667"
            },
            {
                "direct": false,
                "drm": false,
                "name": "Boss 2",
                "icon": "https://secure-media1.hotstar.com/t_web_vl_1x/r1/thumbs/PCTV/49/1000214049/PCTV-1000214049-vl.jpg",
                "lice": "abc",
                "link": "1000214049"
            },
            {
                "direct": false,
                "drm": false,
                "name": "Hoichoi Unlimited",
                "icon": "https://img1.hotstar.com/image/upload/f_auto,t_web_vl_1x/sources/r1/cms/prod/1981/241981-v",
                "lice": "abc",
                "link": "1000228343"
            },
            {
                "direct": false,
                "drm": false,
                "name": "Shudhu Tomari Jonya",
                "icon": "https://secure-media1.hotstar.com/t_web_vl_1x/r1/thumbs/PCTV/56/1770002756/PCTV-1770002756-vl.jpg",
                "lice": "abc",
                "link": "1770002756"
            },
            {
                "direct": false,
                "drm": false,
                "name": "Besh Korechi Prem Korechi",
                "icon": "https://secure-media1.hotstar.com/t_web_vl_1x/r1/thumbs/PCTV/31/1770002731/PCTV-1770002731-vl.jpg",
                "lice": "abc",
                "link": "1770002731"
            },
            {
                "direct": false,
                "drm": false,
                "name": "Pratibad",
                "icon": "https://secure-media1.hotstar.com/t_web_vl_1x/r1/thumbs/PCTV/75/1770002575/PCTV-1770002575-vl.jpg",
                "lice": "abc",
                "link": "1770002575"
            },
            {
                "direct": false,
                "drm": false,
                "name": "Sathi",
                "icon": "https://secure-media1.hotstar.com/t_web_vl_1x/r1/thumbs/PCTV/97/1770002697/PCTV-1770002697-vl.jpg",
                "lice": "abc",
                "link": "1770002697"
            },
            {
                "direct": false,
                "drm": false,
                "name": "Sultan: The Saviour",
                "icon": "https://img1.hotstar.com/image/upload/f_auto,t_web_vl_1x/sources/r1/cms/prod/689/40689-v",
                "lice": "abc",
                "link": "1000221064"
            },
            {
                "direct": false,
                "drm": false,
                "name": "Paglu 2",
                "icon": "https://secure-media1.hotstar.com/t_web_vl_1x/r1/thumbs/PCTV/65/1770002765/PCTV-1770002765-vl.jpg",
                "lice": "abc",
                "link": "1770002765"
            },
            {
                "direct": false,
                "drm": false,
                "name": "Tulkalam",
                "icon": "https://secure-media1.hotstar.com/t_web_vl_1x/r1/thumbs/PCTV/37/1770002637/PCTV-1770002637-vl.jpg",
                "lice": "abc",
                "link": "1770002637"
            },
            {
                "direct": false,
                "drm": false,
                "name": "Challenge",
                "icon": "https://secure-media1.hotstar.com/t_web_vl_1x/r1/thumbs/PCTV/19/1770002619/PCTV-1770002619-vl.jpg",
                "lice": "abc",
                "link": "1770002619"
            },
            {
                "direct": false,
                "drm": false,
                "name": "Mon Mane Na",
                "icon": "https://secure-media1.hotstar.com/t_web_vl_1x/r1/thumbs/PCTV/50/1770002650/PCTV-1770002650-vl.jpg",
                "lice": "abc",
                "link": "1770002650"
            },
            {
                "direct": false,
                "drm": false,
                "name": "Subho Dristi",
                "icon": "https://secure-media1.hotstar.com/t_web_vl_1x/r1/thumbs/PCTV/85/1770002585/PCTV-1770002585-vl.jpg",
                "lice": "abc",
                "link": "1770002585"
            },
            {
                "direct": false,
                "drm": false,
                "name": "Challenge 2",
                "icon": "https://secure-media1.hotstar.com/t_web_vl_1x/r1/thumbs/PCTV/08/1770002508/PCTV-1770002508-vl.jpg",
                "lice": "abc",
                "link": "1770002508"
            },
            {
                "direct": false,
                "drm": false,
                "name": "Premer Kahini",
                "icon": "https://secure-media1.hotstar.com/t_web_vl_1x/r1/thumbs/PCTV/39/1770002739/PCTV-1770002739-vl.jpg",
                "lice": "abc",
                "link": "1770002739"
            },
            {
                "direct": false,
                "drm": false,
                "name": "Sangee",
                "icon": "https://secure-media1.hotstar.com/t_web_vl_1x/r1/thumbs/PCTV/84/1770002584/PCTV-1770002584-vl.jpg",
                "lice": "abc",
                "link": "1770002584"
            },
            {
                "direct": false,
                "drm": false,
                "name": "Kerala Megafloods",
                "icon": "https://img1.hotstar.com/image/upload/f_auto,t_web_vl_1x/sources/r1/cms/prod/7350/397350-v",
                "lice": "abc",
                "link": "1000232194"
            },
            {
                "direct": false,
                "drm": false,
                "name": "Nater Guru",
                "icon": "https://secure-media1.hotstar.com/t_web_vl_1x/r1/thumbs/PCTV/64/1770002764/PCTV-1770002764-vl.jpg",
                "lice": "abc",
                "link": "1770002764"
            },
            {
                "direct": false,
                "drm": false,
                "name": "Sedhin Dekha Hoyechilo",
                "icon": "https://secure-media1.hotstar.com/t_web_vl_1x/r1/thumbs/PCTV/40/1770002640/PCTV-1770002640-vl.jpg",
                "lice": "abc",
                "link": "1770002640"
            },
            {
                "direct": false,
                "drm": false,
                "name": "Paran Jai Jaliya Re",
                "icon": "https://secure-media1.hotstar.com/t_web_vl_1x/r1/thumbs/PCTV/48/1770002748/PCTV-1770002748-vl.jpg",
                "lice": "abc",
                "link": "1770002748"
            },
            {
                "direct": false,
                "drm": false,
                "name": "Chirodini… Tumi Je Amar",
                "icon": "https://secure-media1.hotstar.com/t_web_vl_1x/r1/thumbs/PCTV/01/1770002501/PCTV-1770002501-vl.jpg",
                "lice": "abc",
                "link": "1770002501"
            },
            {
                "direct": false,
                "drm": false,
                "name": "Sasurbari Zindabad",
                "icon": "https://secure-media1.hotstar.com/t_web_vl_1x/r1/thumbs/PCTV/76/1770002576/PCTV-1770002576-vl.jpg",
                "lice": "abc",
                "link": "1770002576"
            },
            {
                "direct": false,
                "drm": false,
                "name": "Dark Side of Crocs",
                "icon": "https://img1.hotstar.com/image/upload/f_auto,t_web_vl_1x/sources/r1/cms/prod/8102/388102-v",
                "lice": "abc",
                "link": "1000234016"
            },
            {
                "direct": false,
                "drm": false,
                "name": "Boss",
                "icon": "https://secure-media1.hotstar.com/t_web_vl_1x/r1/thumbs/PCTV/42/1000016542/PCTV-1000016542-vl.jpg",
                "lice": "abc",
                "link": "1000016542"
            },
            {
                "direct": false,
                "drm": false,
                "name": "Bolo Na Tumi Amaar",
                "icon": "https://secure-media1.hotstar.com/t_web_vl_1x/r1/thumbs/PCTV/21/1770002621/PCTV-1770002621-vl.jpg",
                "lice": "abc",
                "link": "1770002621"
            },
            {
                "direct": false,
                "drm": false,
                "name": "Prem Amaar",
                "icon": "https://secure-media1.hotstar.com/t_web_vl_1x/r1/thumbs/PCTV/57/1770002657/PCTV-1770002657-vl.jpg",
                "lice": "abc",
                "link": "1770002657"
            },
            {
                "direct": false,
                "drm": false,
                "name": "Indrajit",
                "icon": "https://secure-media1.hotstar.com/t_web_vl_1x/r1/thumbs/PCTV/68/1000207868/PCTV-1000207868-vl.jpg",
                "lice": "abc",
                "link": "1000207868"
            },
            {
                "direct": false,
                "drm": false,
                "name": "Mon Je Kore Uru Uru",
                "icon": "https://secure-media1.hotstar.com/t_web_vl_1x/r1/thumbs/PCTV/05/1770002605/PCTV-1770002605-vl.jpg",
                "lice": "abc",
                "link": "1770002605"
            },
            {
                "direct": false,
                "drm": false,
                "name": "Premi",
                "icon": "https://secure-media1.hotstar.com/t_web_vl_1x/r1/thumbs/PCTV/56/1770002556/PCTV-1770002556-vl.jpg",
                "lice": "abc",
                "link": "1770002556"
            },
            {
                "direct": false,
                "drm": false,
                "name": "World's Worst Weather",
                "icon": "https://img1.hotstar.com/image/upload/f_auto,t_web_vl_1x/sources/r1/cms/prod/9586/399586-v",
                "lice": "abc",
                "link": "1000234013"
            },
            {
                "direct": false,
                "drm": false,
                "name": "Dada Thakur",
                "icon": "https://secure-media1.hotstar.com/t_web_vl_1x/r1/thumbs/PCTV/45/1770002645/PCTV-1770002645-vl.jpg",
                "lice": "abc",
                "link": "1770002645"
            },
            {
                "direct": false,
                "drm": false,
                "name": "Jamai No 1",
                "icon": "https://secure-media1.hotstar.com/t_web_vl_1x/r1/thumbs/PCTV/16/1000104016/PCTV-1000104016-vl.jpg",
                "lice": "abc",
                "link": "1000104016"
            },
            {
                "direct": false,
                "drm": false,
                "name": "A Year In Space",
                "icon": "https://img1.hotstar.com/image/upload/f_auto,t_web_vl_1x/sources/r1/cms/prod/8106/388106-v",
                "lice": "abc",
                "link": "1000234017"
            },
            {
                "direct": false,
                "drm": false,
                "name": "Guru",
                "icon": "https://secure-media1.hotstar.com/t_web_vl_1x/r1/thumbs/PCTV/00/1770002600/PCTV-1770002600-vl.jpg",
                "lice": "abc",
                "link": "1770002600"
            },
            {
                "direct": false,
                "drm": false,
                "name": "Surya",
                "icon": "https://secure-media1.hotstar.com/t_web_vl_1x/r1/thumbs/PCTV/47/1770002547/PCTV-1770002547-vl.jpg",
                "lice": "abc",
                "link": "1770002547"
            },
            {
                "direct": false,
                "drm": false,
                "name": "Fidaa",
                "icon": "https://img1.hotstar.com/image/upload/f_auto,t_web_vl_1x/sources/r1/cms/prod/4057/154057-v",
                "lice": "abc",
                "link": "1000224510"
            },
            {
                "direct": false,
                "drm": false,
                "name": "World's Worst Natural Disaster",
                "icon": "https://img1.hotstar.com/image/upload/f_auto,t_web_vl_1x/sources/r1/cms/prod/8099/388099-v",
                "lice": "abc",
                "link": "1000234014"
            },
            {
                "direct": false,
                "drm": false,
                "name": "Janeman",
                "icon": "https://secure-media1.hotstar.com/t_web_vl_1x/r1/thumbs/PCTV/52/1770002652/PCTV-1770002652-vl.jpg",
                "lice": "abc",
                "link": "1770002652"
            },
            {
                "direct": false,
                "drm": false,
                "name": "Agnipath",
                "icon": "https://secure-media1.hotstar.com/t_web_vl_1x/r1/thumbs/PCTV/44/1000206544/PCTV-1000206544-vl.jpg",
                "lice": "abc",
                "link": "1000206544"
            },
            {
                "direct": false,
                "drm": false,
                "name": "Deva",
                "icon": "https://secure-media1.hotstar.com/t_web_vl_1x/r1/thumbs/PCTV/54/1770002654/PCTV-1770002654-vl.jpg",
                "lice": "abc",
                "link": "1770002654"
            },
            {
                "direct": false,
                "drm": false,
                "name": "Drain the Titanic -  A Ship Reborn",
                "icon": "https://img1.hotstar.com/image/upload/f_auto,t_web_vl_1x/sources/r1/cms/prod/2935/352935-v",
                "lice": "abc",
                "link": "1000232904"
            },
            {
                "direct": false,
                "drm": false,
                "name": "Ghatak",
                "icon": "https://secure-media1.hotstar.com/t_web_vl_1x/r1/thumbs/PCTV/17/1770002517/PCTV-1770002517-vl.jpg",
                "lice": "abc",
                "link": "1770002517"
            },
            {
                "direct": false,
                "drm": false,
                "name": "Shob Bhooturey",
                "icon": "https://secure-media1.hotstar.com/t_web_vl_1x/r1/thumbs/PCTV/35/1770016935/PCTV-1770016935-vl.jpg",
                "lice": "abc",
                "link": "1770016935"
            },
            {
                "direct": false,
                "drm": false,
                "name": "Dada",
                "icon": "https://secure-media1.hotstar.com/t_web_vl_1x/r1/thumbs/PCTV/99/1770002599/PCTV-1770002599-vl.jpg",
                "lice": "abc",
                "link": "1770002599"
            },
            {
                "direct": false,
                "drm": false,
                "name": "Hero",
                "icon": "https://secure-media1.hotstar.com/t_web_vl_1x/r1/thumbs/PCTV/32/1770002632/PCTV-1770002632-vl.jpg",
                "lice": "abc",
                "link": "1770002632"
            },
            {
                "direct": false,
                "drm": false,
                "name": "The Last Days of Osama Bin Laden",
                "icon": "https://img1.hotstar.com/image/upload/f_auto,t_web_vl_1x/sources/r1/cms/prod/6549/176549-v",
                "lice": "abc",
                "link": "1000225668"
            },
            {
                "direct": false,
                "drm": false,
                "name": "Pratikar",
                "icon": "https://secure-media1.hotstar.com/t_web_vl_1x/r1/thumbs/PCTV/63/1000207163/PCTV-1000207163-vl.jpg",
                "lice": "abc",
                "link": "1000207163"
            },
            {
                "direct": false,
                "drm": false,
                "name": "Abhishkar",
                "icon": "https://secure-media1.hotstar.com/t_web_vl_1x/r1/thumbs/PCTV/00/1000106900/PCTV-1000106900-vl.jpg",
                "lice": "abc",
                "link": "1000106900"
            },
            {
                "direct": false,
                "drm": false,
                "name": "Total Dadagiri",
                "icon": "https://secure-media1.hotstar.com/t_web_vl_1x/r1/thumbs/PCTV/63/1000209963/PCTV-1000209963-vl.jpg",
                "lice": "abc",
                "link": "1000209963"
            },
            {
                "direct": false,
                "drm": false,
                "name": "Kabir",
                "icon": "https://secure-media1.hotstar.com/t_web_vl_1x/r1/thumbs/PCTV/55/1000216355/PCTV-1000216355-vl.jpg",
                "lice": "abc",
                "link": "1000216355"
            },
            {
                "direct": false,
                "drm": false,
                "name": "Ei Mon Tomay Diyechi",
                "icon": "https://secure-media1.hotstar.com/t_web_vl_1x/r1/thumbs/PCTV/18/1000104018/PCTV-1000104018-vl.jpg",
                "lice": "abc",
                "link": "1000104018"
            },
            {
                "direct": false,
                "drm": false,
                "name": "Champion",
                "icon": "https://secure-media1.hotstar.com/t_web_vl_1x/r1/thumbs/PCTV/65/1770002565/PCTV-1770002565-vl.jpg",
                "lice": "abc",
                "link": "1770002565"
            },
            {
                "direct": false,
                "drm": false,
                "name": "Lost Treasure of The Maya Snake King",
                "icon": "https://img1.hotstar.com/image/upload/f_auto,t_web_vl_1x/sources/r1/cms/prod/2581/382581-v",
                "lice": "abc",
                "link": "1000233694"
            },
            {
                "direct": false,
                "drm": false,
                "name": "Bhanu Pelo Lottery",
                "icon": "https://secure-media1.hotstar.com/t_web_vl_1x/r1/thumbs/PCTV/13/1000208913/PCTV-1000208913-vl.jpg",
                "lice": "abc",
                "link": "1000208913"
            },
            {
                "direct": false,
                "drm": false,
                "name": "Yuddha",
                "icon": "https://secure-media1.hotstar.com/t_web_vl_1x/r1/thumbs/PCTV/27/1770002627/PCTV-1770002627-vl.jpg",
                "lice": "abc",
                "link": "1770002627"
            },
            {
                "direct": false,
                "drm": false,
                "name": "Durga Sohay",
                "icon": "https://secure-media1.hotstar.com/t_web_vl_1x/r1/thumbs/PCTV/80/1770015880/PCTV-1770015880-vl.jpg",
                "lice": "abc",
                "link": "1770015880"
            },
            {
                "direct": false,
                "drm": false,
                "name": "Paapi",
                "icon": "https://secure-media1.hotstar.com/t_web_vl_1x/r1/thumbs/PCTV/90/1000207190/PCTV-1000207190-vl.jpg",
                "lice": "abc",
                "link": "1000207190"
            },
            {
                "direct": false,
                "drm": false,
                "name": "Run",
                "icon": "https://secure-media1.hotstar.com/t_web_vl_1x/r1/thumbs/PCTV/33/1000209133/PCTV-1000209133-vl.jpg",
                "lice": "abc",
                "link": "1000209133"
            },
            {
                "direct": false,
                "drm": false,
                "name": "Bapi Bari Jaa",
                "icon": "https://secure-media1.hotstar.com/t_web_vl_1x/r1/thumbs/PCTV/16/1770002716/PCTV-1770002716-vl.jpg",
                "lice": "abc",
                "link": "1770002716"
            },
            {
                "direct": false,
                "drm": false,
                "name": "Rajababu",
                "icon": "https://secure-media1.hotstar.com/t_web_vl_1x/r1/thumbs/PCTV/33/1770002633/PCTV-1770002633-vl.jpg",
                "lice": "abc",
                "link": "1770002633"
            },
            {
                "direct": false,
                "drm": false,
                "name": "Rehmat Ali",
                "icon": "https://secure-media1.hotstar.com/t_web_vl_1x/r1/thumbs/PCTV/67/1770002667/PCTV-1770002667-vl.jpg",
                "lice": "abc",
                "link": "1770002667"
            },
            {
                "direct": false,
                "drm": false,
                "name": "Moner Bandhan",
                "icon": "https://secure-media1.hotstar.com/t_web_vl_1x/r1/thumbs/PCTV/45/1000104745/PCTV-1000104745-vl.jpg",
                "lice": "abc",
                "link": "1000104745"
            },
            {
                "direct": false,
                "drm": false,
                "name": "Byomkesh Gowtro",
                "icon": "https://img1.hotstar.com/image/upload/f_auto,t_web_vl_1x/sources/r1/cms/prod/915/280915-v",
                "lice": "abc",
                "link": "1000229795"
            },
            {
                "direct": false,
                "drm": false,
                "name": "Extreme Flight: The Indian Air Force",
                "icon": "https://img1.hotstar.com/image/upload/f_auto,t_web_vl_1x/sources/r1/cms/prod/5469/245469-v",
                "lice": "abc",
                "link": "1000228507"
            },
            {
                "direct": false,
                "drm": false,
                "name": "Mastan",
                "icon": "https://secure-media1.hotstar.com/t_web_vl_1x/r1/thumbs/PCTV/34/1770002634/PCTV-1770002634-vl.jpg",
                "lice": "abc",
                "link": "1770002634"
            },
            {
                "direct": false,
                "drm": false,
                "name": "Jamaibabu Zindabad",
                "icon": "https://secure-media1.hotstar.com/t_web_vl_1x/r1/thumbs/PCTV/69/1770002669/PCTV-1770002669-vl.jpg",
                "lice": "abc",
                "link": "1770002669"
            },
            {
                "direct": false,
                "drm": false,
                "name": "Ranakshetra",
                "icon": "https://secure-media1.hotstar.com/t_web_vl_1x/r1/thumbs/PCTV/23/1770002623/PCTV-1770002623-vl.jpg",
                "lice": "abc",
                "link": "1770002623"
            },
            {
                "direct": false,
                "drm": false,
                "name": "Adhikar",
                "icon": "https://secure-media1.hotstar.com/t_web_vl_1x/r1/thumbs/PCTV/52/1000210052/PCTV-1000210052-vl.jpg",
                "lice": "abc",
                "link": "1000210052"
            },
            {
                "direct": false,
                "drm": false,
                "name": "Rajkahini",
                "icon": "https://secure-media1.hotstar.com/t_web_vl_1x/r1/thumbs/PCTV/45/1770002745/PCTV-1770002745-vl.jpg",
                "lice": "abc",
                "link": "1770002745"
            },
            {
                "direct": false,
                "drm": false,
                "name": "Nag Nagini",
                "icon": "https://secure-media1.hotstar.com/t_web_vl_1x/r1/thumbs/PCTV/30/1770002730/PCTV-1770002730-vl.jpg",
                "lice": "abc",
                "link": "1770002730"
            },
            {
                "direct": false,
                "drm": false,
                "name": "Villain",
                "icon": "https://img1.hotstar.com/image/upload/f_auto,t_web_vl_1x/sources/r1/cms/prod/2332/292332-v",
                "lice": "abc",
                "link": "1000229796"
            },
            {
                "direct": false,
                "drm": false,
                "name": "Kranti",
                "icon": "https://secure-media1.hotstar.com/t_web_vl_1x/r1/thumbs/PCTV/47/1770002647/PCTV-1770002647-vl.jpg",
                "lice": "abc",
                "link": "1770002647"
            },
            {
                "direct": false,
                "drm": false,
                "name": "Golemale Pirit Koro Na",
                "icon": "https://secure-media1.hotstar.com/t_web_vl_1x/r1/thumbs/PCTV/54/1770002754/PCTV-1770002754-vl.jpg",
                "lice": "abc",
                "link": "1770002754"
            },
            {
                "direct": false,
                "drm": false,
                "name": "Bolo Dugga Mai Ki",
                "icon": "https://secure-media1.hotstar.com/t_web_vl_1x/r1/thumbs/PCTV/28/1000210028/PCTV-1000210028-vl.jpg",
                "lice": "abc",
                "link": "1000210028"
            },
            {
                "direct": false,
                "drm": false,
                "name": "Saathi Aamar Bondhu Aamar",
                "icon": "https://secure-media1.hotstar.com/t_web_vl_1x/r1/thumbs/PCTV/83/1770002583/PCTV-1770002583-vl.jpg",
                "lice": "abc",
                "link": "1770002583"
            },
            {
                "direct": false,
                "drm": false,
                "name": "Bhai amar bhai",
                "icon": "https://secure-media1.hotstar.com/t_web_vl_1x/r1/thumbs/PCTV/36/1770002636/PCTV-1770002636-vl.jpg",
                "lice": "abc",
                "link": "1770002636"
            },
            {
                "direct": false,
                "drm": false,
                "name": "Guptodhoner Sondhane",
                "icon": "https://img1.hotstar.com/image/upload/f_auto,t_web_vl_1x/sources/r1/cms/prod/3732/303732-v",
                "lice": "abc",
                "link": "1000230104"
            },
            {
                "direct": false,
                "drm": false,
                "name": "Mayer Bandhan",
                "icon": "https://secure-media1.hotstar.com/t_web_vl_1x/r1/thumbs/PCTV/29/1770002629/PCTV-1770002629-vl.jpg",
                "lice": "abc",
                "link": "1770002629"
            },
            {
                "direct": false,
                "drm": false,
                "name": "Ki Kore Toke Bolbo",
                "icon": "https://secure-media1.hotstar.com/t_web_vl_1x/r1/thumbs/PCTV/23/1770002723/PCTV-1770002723-vl.jpg",
                "lice": "abc",
                "link": "1770002723"
            },
            {
                "direct": false,
                "drm": false,
                "name": "Air Force One - America's Flagship",
                "icon": "https://img1.hotstar.com/image/upload/f_auto,t_web_vl_1x/sources/r1/cms/prod/2933/352933-v",
                "lice": "abc",
                "link": "1000232906"
            },
            {
                "direct": false,
                "drm": false,
                "name": "Ek Je Chhilo Raja",
                "icon": "https://img1.hotstar.com/image/upload/f_auto,t_web_vl_1x/sources/r1/cms/prod/645/320645-v",
                "lice": "abc",
                "link": "1000231556"
            },
            {
                "direct": false,
                "drm": false,
                "name": "Royal Bengal Rahashya",
                "icon": "https://secure-media1.hotstar.com/t_web_vl_1x/r1/thumbs/PCTV/46/1770002746/PCTV-1770002746-vl.jpg",
                "lice": "abc",
                "link": "1770002746"
            },
            {
                "direct": false,
                "drm": false,
                "name": "Crisscross",
                "icon": "https://img1.hotstar.com/image/upload/f_auto,t_web_vl_1x/sources/r1/cms/prod/7937/297937-v",
                "lice": "abc",
                "link": "1000230103"
            },
            {
                "direct": false,
                "drm": false,
                "name": "Sonar Sansar",
                "icon": "https://secure-media1.hotstar.com/t_web_vl_1x/r1/thumbs/PCTV/49/1770002649/PCTV-1770002649-vl.jpg",
                "lice": "abc",
                "link": "1770002649"
            },
            {
                "direct": false,
                "drm": false,
                "name": "Rakhi Purnima",
                "icon": "https://secure-media1.hotstar.com/t_web_vl_1x/r1/thumbs/PCTV/28/1770002628/PCTV-1770002628-vl.jpg",
                "lice": "abc",
                "link": "1770002628"
            },
            {
                "direct": false,
                "drm": false,
                "name": "Jamai 420",
                "icon": "https://secure-media1.hotstar.com/t_web_vl_1x/r1/thumbs/PCTV/29/1770002729/PCTV-1770002729-vl.jpg",
                "lice": "abc",
                "link": "1770002729"
            },
            {
                "direct": false,
                "drm": false,
                "name": "Adventures of Jojo",
                "icon": "https://img1.hotstar.com/image/upload/f_auto,t_web_vl_1x/sources/r1/cms/prod/26/370026-v",
                "lice": "abc",
                "link": "1000233084"
            },
            {
                "direct": false,
                "drm": false,
                "name": "Bazee",
                "icon": "https://secure-media1.hotstar.com/t_web_vl_1x/r1/thumbs/PCTV/43/1770002843/PCTV-1770002843-vl.jpg",
                "lice": "abc",
                "link": "1770002843"
            },
            {
                "direct": false,
                "drm": false,
                "name": "Parbona Ami Charte Toke",
                "icon": "https://secure-media1.hotstar.com/t_web_vl_1x/r1/thumbs/PCTV/37/1770002737/PCTV-1770002737-vl.jpg",
                "lice": "abc",
                "link": "1770002737"
            },
            {
                "direct": false,
                "drm": false,
                "name": "Bela Seshe",
                "icon": "https://secure-media1.hotstar.com/t_web_vl_1x/r1/thumbs/PCTV/61/1000104361/PCTV-1000104361-vl.jpg",
                "lice": "abc",
                "link": "1000104361"
            },
            {
                "direct": false,
                "drm": false,
                "name": "Awara",
                "icon": "https://secure-media1.hotstar.com/t_web_vl_1x/r1/thumbs/PCTV/82/1770002682/PCTV-1770002682-vl.jpg",
                "lice": "abc",
                "link": "1770002682"
            },
            {
                "direct": false,
                "drm": false,
                "name": "Premer Pratidan",
                "icon": "https://secure-media1.hotstar.com/t_web_vl_1x/r1/thumbs/PCTV/68/1000105568/PCTV-1000105568-vl.jpg",
                "lice": "abc",
                "link": "1000105568"
            },
            {
                "direct": false,
                "drm": false,
                "name": "Raja Rani Raji",
                "icon": "https://secure-media1.hotstar.com/t_web_vl_1x/r1/thumbs/PCTV/87/1000211587/PCTV-1000211587-vl.jpg",
                "lice": "abc",
                "link": "1000211587"
            },
            {
                "direct": false,
                "drm": false,
                "name": "Byomkesh Pawrbo",
                "icon": "https://secure-media1.hotstar.com/t_web_vl_1x/r1/thumbs/PCTV/39/1770004339/PCTV-1770004339-vl.jpg",
                "lice": "abc",
                "link": "1770004339"
            },
            {
                "direct": false,
                "drm": false,
                "name": "Amoli",
                "icon": "https://secure-media1.hotstar.com/t_web_vl_1x/r1/thumbs/PCTV/75/1000211875/PCTV-1000211875-vl.jpg",
                "lice": "abc",
                "link": "1000211875"
            },
            {
                "direct": false,
                "drm": false,
                "name": "Mangalyaan: India's Mission To Mars",
                "icon": "https://img1.hotstar.com/image/upload/f_auto,t_web_vl_1x/sources/r1/cms/prod/1383/71383-v",
                "lice": "abc",
                "link": "1770005017"
            },
            {
                "direct": false,
                "drm": false,
                "name": "Bhalobasi Sudhu Tomake",
                "icon": "https://secure-media1.hotstar.com/t_web_vl_1x/r1/thumbs/PCTV/89/1000104389/PCTV-1000104389-vl.jpg",
                "lice": "abc",
                "link": "1000104389"
            },
            {
                "direct": false,
                "drm": false,
                "name": "Badshahi Angti",
                "icon": "https://secure-media1.hotstar.com/t_web_vl_1x/r1/thumbs/PCTV/83/1770002683/PCTV-1770002683-vl.jpg",
                "lice": "abc",
                "link": "1770002683"
            },
            {
                "direct": false,
                "drm": false,
                "name": "Bibaho Diaries",
                "icon": "https://secure-media1.hotstar.com/t_web_vl_1x/r1/thumbs/PCTV/65/1000215465/PCTV-1000215465-vl.jpg",
                "lice": "abc",
                "link": "1000215465"
            },
            {
                "direct": false,
                "drm": false,
                "name": "Gangster",
                "icon": "https://secure-media1.hotstar.com/t_web_vl_1x/r1/thumbs/PCTV/46/1770016246/PCTV-1770016246-vl.jpg",
                "lice": "abc",
                "link": "1770016246"
            },
            {
                "direct": false,
                "drm": false,
                "name": "Haripada Bandwala",
                "icon": "https://secure-media1.hotstar.com/t_web_vl_1x/r1/thumbs/PCTV/38/1770004338/PCTV-1770004338-vl.jpg",
                "lice": "abc",
                "link": "1770004338"
            },
            {
                "direct": false,
                "drm": false,
                "name": "Jibani Niye Khela",
                "icon": "https://secure-media1.hotstar.com/t_web_vl_1x/r1/thumbs/PCTV/64/1770002664/PCTV-1770002664-vl.jpg",
                "lice": "abc",
                "link": "1770002664"
            },
            {
                "direct": false,
                "drm": false,
                "name": "Har Har Byomkesh",
                "icon": "https://secure-media1.hotstar.com/t_web_vl_1x/r1/thumbs/PCTV/08/1770002708/PCTV-1770002708-vl.jpg",
                "lice": "abc",
                "link": "1770002708"
            },
            {
                "direct": false,
                "drm": false,
                "name": "Amazon Obhijaan",
                "icon": "https://secure-media1.hotstar.com/t_web_vl_1x/r1/thumbs/PCTV/07/1000211607/PCTV-1000211607-vl.jpg",
                "lice": "abc",
                "link": "1000211607"
            },
            {
                "direct": false,
                "drm": false,
                "name": "Aamar Sathi",
                "icon": "https://secure-media1.hotstar.com/t_web_vl_1x/r1/thumbs/PCTV/99/1000107099/PCTV-1000107099-vl.jpg",
                "lice": "abc",
                "link": "1000107099"
            },
            {
                "direct": false,
                "drm": false,
                "name": "Amar Sanghee",
                "icon": "https://secure-media1.hotstar.com/t_web_vl_1x/r1/thumbs/PCTV/25/1770002625/PCTV-1770002625-vl.jpg",
                "lice": "abc",
                "link": "1770002625"
            },
            {
                "direct": false,
                "drm": false,
                "name": "Inside Indian Naval Academy",
                "icon": "https://img1.hotstar.com/image/upload/f_auto,t_web_vl_1x/sources/r1/cms/prod/1637/71637-v",
                "lice": "abc",
                "link": "1770005015"
            },
            {
                "direct": false,
                "drm": false,
                "name": "Premi No. 1",
                "icon": "https://secure-media1.hotstar.com/t_web_vl_1x/r1/thumbs/PCTV/17/1770002717/PCTV-1770002717-vl.jpg",
                "lice": "abc",
                "link": "1770002717"
            },
            {
                "direct": false,
                "drm": false,
                "name": "I Love You",
                "icon": "https://secure-media1.hotstar.com/t_web_vl_1x/r1/thumbs/PCTV/82/1770002582/PCTV-1770002582-vl.jpg",
                "lice": "abc",
                "link": "1770002582"
            },
            {
                "direct": false,
                "drm": false,
                "name": "One",
                "icon": "https://secure-media1.hotstar.com/t_web_vl_1x/r1/thumbs/PCTV/87/1770015987/PCTV-1770015987-vl.jpg",
                "lice": "abc",
                "link": "1770015987"
            },
            {
                "direct": false,
                "drm": false,
                "name": "Krishna",
                "icon": "https://secure-media1.hotstar.com/t_web_vl_1x/r1/thumbs/PCTV/42/1770002842/PCTV-1770002842-vl.jpg",
                "lice": "abc",
                "link": "1770002842"
            },
            {
                "direct": false,
                "drm": false,
                "name": "Jekhane Bhooter Bhoy",
                "icon": "https://secure-media1.hotstar.com/t_web_vl_1x/r1/thumbs/PCTV/32/1770002732/PCTV-1770002732-vl.jpg",
                "lice": "abc",
                "link": "1770002732"
            },
            {
                "direct": false,
                "drm": false,
                "name": "Ami Shubhash Bolchi",
                "icon": "https://secure-media1.hotstar.com/t_web_vl_1x/r1/thumbs/PCTV/51/1770002651/PCTV-1770002651-vl.jpg",
                "lice": "abc",
                "link": "1770002651"
            },
            {
                "direct": false,
                "drm": false,
                "name": "Naqaab",
                "icon": "https://img1.hotstar.com/image/upload/f_auto,t_web_vl_1x/sources/r1/cms/prod/3019/293019-v",
                "lice": "abc",
                "link": "1000230101"
            },
            {
                "direct": false,
                "drm": false,
                "name": "Sakhi Tumi Kar",
                "icon": "https://secure-media1.hotstar.com/t_web_vl_1x/r1/thumbs/PCTV/51/1770002751/PCTV-1770002751-vl.jpg",
                "lice": "abc",
                "link": "1770002751"
            },
            {
                "direct": false,
                "drm": false,
                "name": "Bhoy",
                "icon": "https://secure-media1.hotstar.com/t_web_vl_1x/r1/thumbs/PCTV/41/1770002741/PCTV-1770002741-vl.jpg",
                "lice": "abc",
                "link": "1770002741"
            },
            {
                "direct": false,
                "drm": false,
                "name": "Amanat",
                "icon": "https://secure-media1.hotstar.com/t_web_vl_1x/r1/thumbs/PCTV/56/1000208956/PCTV-1000208956-vl.jpg",
                "lice": "abc",
                "link": "1000208956"
            },
            {
                "direct": false,
                "drm": false,
                "name": "Badhu",
                "icon": "https://secure-media1.hotstar.com/t_web_vl_1x/r1/thumbs/PCTV/41/1000104041/PCTV-1000104041-vl.jpg",
                "lice": "abc",
                "link": "1000104041"
            },
            {
                "direct": false,
                "drm": false,
                "name": "Legends of Jagannath Puri",
                "icon": "https://img1.hotstar.com/image/upload/f_auto,t_web_vl_1x/sources/r1/cms/prod/1397/71397-v",
                "lice": "abc",
                "link": "1770005019"
            },
            {
                "direct": false,
                "drm": false,
                "name": "Power",
                "icon": "https://secure-media1.hotstar.com/t_web_vl_1x/r1/thumbs/PCTV/62/1770002762/PCTV-1770002762-vl.jpg",
                "lice": "abc",
                "link": "1770002762"
            },
            {
                "direct": false,
                "drm": false,
                "name": "Beder Mey Kanchanmala",
                "icon": "https://secure-media1.hotstar.com/t_web_vl_1x/r1/thumbs/PCTV/24/1000107524/PCTV-1000107524-vl.jpg",
                "lice": "abc",
                "link": "1000107524"
            },
            {
                "direct": false,
                "drm": false,
                "name": "Mon Chai Tomay",
                "icon": "https://secure-media1.hotstar.com/t_web_vl_1x/r1/thumbs/PCTV/99/1000106899/PCTV-1000106899-vl.jpg",
                "lice": "abc",
                "link": "1000106899"
            },
            {
                "direct": false,
                "drm": false,
                "name": "Yeti Obhijaan",
                "icon": "https://secure-media1.hotstar.com/t_web_vl_1x/r1/thumbs/PCTV/97/1000205397/PCTV-1000205397-vl.jpg",
                "lice": "abc",
                "link": "1000205397"
            },
            {
                "direct": false,
                "drm": false,
                "name": "Smriti Medur",
                "icon": "https://secure-media1.hotstar.com/t_web_vl_1x/r1/thumbs/PCTV/42/1000104042/PCTV-1000104042-vl.jpg",
                "lice": "abc",
                "link": "1000104042"
            },
            {
                "direct": false,
                "drm": false,
                "name": "Mishawr Rawhoshyo",
                "icon": "https://secure-media1.hotstar.com/t_web_vl_1x/r1/thumbs/PCTV/60/1770002560/PCTV-1770002560-vl.jpg",
                "lice": "abc",
                "link": "1770002560"
            },
            {
                "direct": false,
                "drm": false,
                "name": "Bindaas",
                "icon": "https://secure-media1.hotstar.com/t_web_vl_1x/r1/thumbs/PCTV/86/1770002686/PCTV-1770002686-vl.jpg",
                "lice": "abc",
                "link": "1770002686"
            },
            {
                "direct": false,
                "drm": false,
                "name": "Bhooter Bhabishyat",
                "icon": "https://img1.hotstar.com/image/upload/f_auto,t_web_vl_1x/sources/r1/cms/prod/4782/24782-v",
                "lice": "abc",
                "link": "1000219948"
            },
            {
                "direct": false,
                "drm": false,
                "name": "Tarini",
                "icon": "https://img1.hotstar.com/image/upload/f_auto,t_web_vl_1x/sources/r1/cms/prod/3677/313677-v",
                "lice": "abc",
                "link": "1000231418"
            },
            {
                "direct": false,
                "drm": false,
                "name": "Roga Howar Sohoj Upay",
                "icon": "https://secure-media1.hotstar.com/t_web_vl_1x/r1/thumbs/PCTV/36/1770002736/PCTV-1770002736-vl.jpg",
                "lice": "abc",
                "link": "1770002736"
            },
            {
                "direct": false,
                "drm": false,
                "name": "Thammar Boyfriend",
                "icon": "https://secure-media1.hotstar.com/t_web_vl_1x/r1/thumbs/PCTV/48/1770016248/PCTV-1770016248-vl.jpg",
                "lice": "abc",
                "link": "1770016248"
            },
            {
                "direct": false,
                "drm": false,
                "name": "Posto",
                "icon": "https://secure-media1.hotstar.com/t_web_vl_1x/r1/thumbs/PCTV/52/1000215752/PCTV-1000215752-vl.jpg",
                "lice": "abc",
                "link": "1000215752"
            },
            {
                "direct": false,
                "drm": false,
                "name": "Goynar Baksho",
                "icon": "https://secure-media1.hotstar.com/t_web_vl_1x/r1/thumbs/PCTV/07/1770002707/PCTV-1770002707-vl.jpg",
                "lice": "abc",
                "link": "1770002707"
            },
            {
                "direct": false,
                "drm": false,
                "name": "Chokher Bali",
                "icon": "https://secure-media1.hotstar.com/t_web_vl_1x/r1/thumbs/PCTV/05/1770002705/PCTV-1770002705-vl.jpg",
                "lice": "abc",
                "link": "1770002705"
            },
            {
                "direct": false,
                "drm": false,
                "name": "Uma",
                "icon": "https://secure-media1.hotstar.com/t_web_vl_1x/r1/thumbs/PCTV/66/1000217966/PCTV-1000217966-vl.jpg",
                "lice": "abc",
                "link": "1000217966"
            },
            {
                "direct": false,
                "drm": false,
                "name": "Josh",
                "icon": "https://secure-media1.hotstar.com/t_web_vl_1x/r1/thumbs/PCTV/81/1770002581/PCTV-1770002581-vl.jpg",
                "lice": "abc",
                "link": "1770002581"
            },
            {
                "direct": false,
                "drm": false,
                "name": "Shankhachil",
                "icon": "https://secure-media1.hotstar.com/t_web_vl_1x/r1/thumbs/PCTV/96/1000106896/PCTV-1000106896-vl.jpg",
                "lice": "abc",
                "link": "1000106896"
            },
            {
                "direct": false,
                "drm": false,
                "name": "Pran Sajani",
                "icon": "https://secure-media1.hotstar.com/t_web_vl_1x/r1/thumbs/PCTV/53/1770002653/PCTV-1770002653-vl.jpg",
                "lice": "abc",
                "link": "1770002653"
            },
            {
                "direct": false,
                "drm": false,
                "name": "Yoddha: The Warrior",
                "icon": "https://secure-media1.hotstar.com/t_web_vl_1x/r1/thumbs/PCTV/53/1770002753/PCTV-1770002753-vl.jpg",
                "lice": "abc",
                "link": "1770002753"
            },
            {
                "direct": false,
                "drm": false,
                "name": "Parir Swapno",
                "icon": "https://secure-media1.hotstar.com/t_web_vl_1x/r1/thumbs/PCTV/67/1000105567/PCTV-1000105567-vl.jpg",
                "lice": "abc",
                "link": "1000105567"
            },
            {
                "direct": false,
                "drm": false,
                "name": "Behula Lakhindar",
                "icon": "https://secure-media1.hotstar.com/t_web_vl_1x/r1/thumbs/PCTV/90/1770002490/PCTV-1770002490-vl.jpg",
                "lice": "abc",
                "link": "1770002490"
            },
            {
                "direct": false,
                "drm": false,
                "name": "Rajdanda",
                "icon": "https://secure-media1.hotstar.com/t_web_vl_1x/r1/thumbs/PCTV/11/1000210911/PCTV-1000210911-vl.jpg",
                "lice": "abc",
                "link": "1000210911"
            },
            {
                "direct": false,
                "drm": false,
                "name": "Le Halua Le",
                "icon": "https://secure-media1.hotstar.com/t_web_vl_1x/r1/thumbs/PCTV/04/1770002604/PCTV-1770002604-vl.jpg",
                "lice": "abc",
                "link": "1770002604"
            },
            {
                "direct": false,
                "drm": false,
                "name": "Bandhan",
                "icon": "https://secure-media1.hotstar.com/t_web_vl_1x/r1/thumbs/PCTV/55/1770002655/PCTV-1770002655-vl.jpg",
                "lice": "abc",
                "link": "1770002655"
            },
            {
                "direct": false,
                "drm": false,
                "name": "Tumi Ele Tai",
                "icon": "https://secure-media1.hotstar.com/t_web_vl_1x/r1/thumbs/PCTV/20/1770002620/PCTV-1770002620-vl.jpg",
                "lice": "abc",
                "link": "1770002620"
            },
            {
                "direct": false,
                "drm": false,
                "name": "Arundhati",
                "icon": "https://secure-media1.hotstar.com/t_web_vl_1x/r1/thumbs/PCTV/81/1770002681/PCTV-1770002681-vl.jpg",
                "lice": "abc",
                "link": "1770002681"
            },
            {
                "direct": false,
                "drm": false,
                "name": "Baishe Srabon",
                "icon": "https://secure-media1.hotstar.com/t_web_vl_1x/r1/thumbs/PCTV/84/1770002684/PCTV-1770002684-vl.jpg",
                "lice": "abc",
                "link": "1770002684"
            },
            {
                "direct": false,
                "drm": false,
                "name": "Bhoomi",
                "icon": "https://secure-media1.hotstar.com/t_web_vl_1x/r1/thumbs/PCTV/90/1000104390/PCTV-1000104390-vl.jpg",
                "lice": "abc",
                "link": "1000104390"
            },
            {
                "direct": false,
                "drm": false,
                "name": "Abosheshey",
                "icon": "https://secure-media1.hotstar.com/t_web_vl_1x/r1/thumbs/PCTV/31/1000100431/PCTV-1000100431-vl.jpg",
                "lice": "abc",
                "link": "1000100431"
            },
            {
                "direct": false,
                "drm": false,
                "name": "Kelor Kirti",
                "icon": "https://secure-media1.hotstar.com/t_web_vl_1x/r1/thumbs/PCTV/42/1770003142/PCTV-1770003142-vl.jpg",
                "lice": "abc",
                "link": "1770003142"
            },
            {
                "direct": false,
                "drm": false,
                "name": "Jomer Raja Dilo Bor",
                "icon": "https://secure-media1.hotstar.com/t_web_vl_1x/r1/thumbs/PCTV/78/1000214378/PCTV-1000214378-vl.jpg",
                "lice": "abc",
                "link": "1000214378"
            },
            {
                "direct": false,
                "drm": false,
                "name": "Bojhena Shey Bojhena",
                "icon": "https://secure-media1.hotstar.com/t_web_vl_1x/r1/thumbs/PCTV/87/1770002687/PCTV-1770002687-vl.jpg",
                "lice": "abc",
                "link": "1770002687"
            },
            {
                "direct": false,
                "drm": false,
                "name": "100% Love",
                "icon": "https://secure-media1.hotstar.com/t_web_vl_1x/r1/thumbs/PCTV/86/1770002586/PCTV-1770002586-vl.jpg",
                "lice": "abc",
                "link": "1770002586"
            },
            {
                "direct": false,
                "drm": false,
                "name": "Inside The Mahakumbh Mela",
                "icon": "https://img1.hotstar.com/image/upload/f_auto,t_web_vl_1x/sources/r1/cms/prod/3107/183107-v",
                "lice": "abc",
                "link": "1000225667"
            },
            {
                "direct": false,
                "drm": false,
                "name": "Love Express",
                "icon": "https://secure-media1.hotstar.com/t_web_vl_1x/r1/thumbs/PCTV/48/1770003648/PCTV-1770003648-vl.jpg",
                "lice": "abc",
                "link": "1770003648"
            },
            {
                "direct": false,
                "drm": false,
                "name": "Pratidwandi",
                "icon": "https://secure-media1.hotstar.com/t_web_vl_1x/r1/thumbs/PCTV/39/1770002639/PCTV-1770002639-vl.jpg",
                "lice": "abc",
                "link": "1770002639"
            },
            {
                "direct": false,
                "drm": false,
                "name": "Zulfiqar",
                "icon": "https://secure-media1.hotstar.com/t_web_vl_1x/r1/thumbs/PCTV/45/1770003645/PCTV-1770003645-vl.jpg",
                "lice": "abc",
                "link": "1770003645"
            },
            {
                "direct": false,
                "drm": false,
                "name": "Ami Je Ke Tomar",
                "icon": "https://secure-media1.hotstar.com/t_web_vl_1x/r1/thumbs/PCTV/33/1770016133/PCTV-1770016133-vl.jpg",
                "lice": "abc",
                "link": "1770016133"
            },
            {
                "direct": false,
                "drm": false,
                "name": "Tomake Chai",
                "icon": "https://secure-media1.hotstar.com/t_web_vl_1x/r1/thumbs/PCTV/80/1770015680/PCTV-1770015680-vl.jpg",
                "lice": "abc",
                "link": "1770015680"
            },
            {
                "direct": false,
                "drm": false,
                "name": "Loveria",
                "icon": "https://secure-media1.hotstar.com/t_web_vl_1x/r1/thumbs/PCTV/47/1770002747/PCTV-1770002747-vl.jpg",
                "lice": "abc",
                "link": "1770002747"
            },
            {
                "direct": false,
                "drm": false,
                "name": "Kaalpurush",
                "icon": "https://secure-media1.hotstar.com/t_web_vl_1x/r1/thumbs/PCTV/24/1770002624/PCTV-1770002624-vl.jpg",
                "lice": "abc",
                "link": "1770002624"
            },
            {
                "direct": false,
                "drm": false,
                "name": "Swapner Din",
                "icon": "https://secure-media1.hotstar.com/t_web_vl_1x/r1/thumbs/PCTV/52/1770002752/PCTV-1770002752-vl.jpg",
                "lice": "abc",
                "link": "1770002752"
            },
            {
                "direct": false,
                "drm": false,
                "name": "Herogiri",
                "icon": "https://secure-media1.hotstar.com/t_web_vl_1x/r1/thumbs/PCTV/22/1770002722/PCTV-1770002722-vl.jpg",
                "lice": "abc",
                "link": "1770002722"
            },
            {
                "direct": false,
                "drm": false,
                "name": "Mahanagar @ Kolkata",
                "icon": "https://secure-media1.hotstar.com/t_web_vl_1x/r1/thumbs/PCTV/38/1770002638/PCTV-1770002638-vl.jpg",
                "lice": "abc",
                "link": "1770002638"
            },
            {
                "direct": false,
                "drm": false,
                "name": "Purashkar",
                "icon": "https://secure-media1.hotstar.com/t_web_vl_1x/r1/thumbs/PCTV/76/1000104276/PCTV-1000104276-vl.jpg",
                "lice": "abc",
                "link": "1000104276"
            },
            {
                "direct": false,
                "drm": false,
                "name": "Dui Prithibi",
                "icon": "https://secure-media1.hotstar.com/t_web_vl_1x/r1/thumbs/PCTV/78/1770002578/PCTV-1770002578-vl.jpg",
                "lice": "abc",
                "link": "1770002578"
            },
            {
                "direct": false,
                "drm": false,
                "name": "Chirodini Tumi Je Amar: 2",
                "icon": "https://secure-media1.hotstar.com/t_web_vl_1x/r1/thumbs/PCTV/89/1770002689/PCTV-1770002689-vl.jpg",
                "lice": "abc",
                "link": "1770002689"
            },
            {
                "direct": false,
                "drm": false,
                "name": "Agnisakshi",
                "icon": "https://secure-media1.hotstar.com/t_web_vl_1x/r1/thumbs/PCTV/59/1770002659/PCTV-1770002659-vl.jpg",
                "lice": "abc",
                "link": "1770002659"
            },
            {
                "direct": false,
                "drm": false,
                "name": "Saat Pake Bandha",
                "icon": "https://secure-media1.hotstar.com/t_web_vl_1x/r1/thumbs/PCTV/74/1770002574/PCTV-1770002574-vl.jpg",
                "lice": "abc",
                "link": "1770002574"
            },
            {
                "direct": false,
                "drm": false,
                "name": "Bindas Prem",
                "icon": "https://secure-media1.hotstar.com/t_web_vl_1x/r1/thumbs/PCTV/63/1770002763/PCTV-1770002763-vl.jpg",
                "lice": "abc",
                "link": "1770002763"
            },
            {
                "direct": false,
                "drm": false,
                "name": "Neel Rajar Deshe",
                "icon": "https://secure-media1.hotstar.com/t_web_vl_1x/r1/thumbs/PCTV/56/1770002656/PCTV-1770002656-vl.jpg",
                "lice": "abc",
                "link": "1770002656"
            },
            {
                "direct": false,
                "drm": false,
                "name": "Golpo Holeo Shotti",
                "icon": "https://secure-media1.hotstar.com/t_web_vl_1x/r1/thumbs/PCTV/06/1770002706/PCTV-1770002706-vl.jpg",
                "lice": "abc",
                "link": "1770002706"
            },
            {
                "direct": false,
                "drm": false,
                "name": "Raja Gaja No Problem",
                "icon": "https://secure-media1.hotstar.com/t_web_vl_1x/r1/thumbs/PCTV/66/1770002666/PCTV-1770002666-vl.jpg",
                "lice": "abc",
                "link": "1770002666"
            },
            {
                "direct": false,
                "drm": false,
                "name": "Amanush 2",
                "icon": "https://secure-media1.hotstar.com/t_web_vl_1x/r1/thumbs/PCTV/61/1770002661/PCTV-1770002661-vl.jpg",
                "lice": "abc",
                "link": "1770002661"
            },
            {
                "direct": false,
                "drm": false,
                "name": "Kellafate",
                "icon": "https://secure-media1.hotstar.com/t_web_vl_1x/r1/thumbs/PCTV/50/1770004350/PCTV-1770004350-vl.jpg",
                "lice": "abc",
                "link": "1770004350"
            },
            {
                "direct": false,
                "drm": false,
                "name": "Hemlock Society",
                "icon": "https://secure-media1.hotstar.com/t_web_vl_1x/r1/thumbs/PCTV/26/1770002726/PCTV-1770002726-vl.jpg",
                "lice": "abc",
                "link": "1770002726"
            },
            {
                "direct": false,
                "drm": false,
                "name": "Faande Poriya Boga Kaande Re",
                "icon": "https://secure-media1.hotstar.com/t_web_vl_1x/r1/thumbs/PCTV/67/1770002767/PCTV-1770002767-vl.jpg",
                "lice": "abc",
                "link": "1770002767"
            },
            {
                "direct": false,
                "drm": false,
                "name": "Janmadata",
                "icon": "https://secure-media1.hotstar.com/t_web_vl_1x/r1/thumbs/PCTV/44/1770002644/PCTV-1770002644-vl.jpg",
                "lice": "abc",
                "link": "1770002644"
            },
            {
                "direct": false,
                "drm": false,
                "name": "Bouman Banbas",
                "icon": "https://secure-media1.hotstar.com/t_web_vl_1x/r1/thumbs/PCTV/02/1770002602/PCTV-1770002602-vl.jpg",
                "lice": "abc",
                "link": "1770002602"
            },
            {
                "direct": false,
                "drm": false,
                "name": "Chalo Paltai",
                "icon": "https://secure-media1.hotstar.com/t_web_vl_1x/r1/thumbs/PCTV/25/1770002725/PCTV-1770002725-vl.jpg",
                "lice": "abc",
                "link": "1770002725"
            },
            {
                "direct": false,
                "drm": false,
                "name": "Highway",
                "icon": "https://secure-media1.hotstar.com/t_web_vl_1x/r1/thumbs/PCTV/40/1000205940/PCTV-1000205940-vl.jpg",
                "lice": "abc",
                "link": "1000205940"
            },
            {
                "direct": false,
                "drm": false,
                "name": "Rubaru Roshni",
                "icon": "https://img1.hotstar.com/image/upload/f_auto,t_web_vl_1x/sources/r1/cms/prod/6566/246566-v",
                "lice": "abc",
                "link": "1000228518"
            },
            {
                "direct": false,
                "drm": false,
                "name": "Romeo",
                "icon": "https://secure-media1.hotstar.com/t_web_vl_1x/r1/thumbs/PCTV/22/1770002622/PCTV-1770002622-vl.jpg",
                "lice": "abc",
                "link": "1770002622"
            },
            {
                "direct": false,
                "drm": false,
                "name": "Apur Panchali",
                "icon": "https://secure-media1.hotstar.com/t_web_vl_1x/r1/thumbs/PCTV/03/1770017003/PCTV-1770017003-vl.jpg",
                "lice": "abc",
                "link": "1770017003"
            },
            {
                "direct": false,
                "drm": false,
                "name": "Paglu",
                "icon": "https://secure-media1.hotstar.com/t_web_vl_1x/r1/thumbs/PCTV/60/1770002760/PCTV-1770002760-vl.jpg",
                "lice": "abc",
                "link": "1770002760"
            },
            {
                "direct": false,
                "drm": false,
                "name": "Minister Fatakeshto",
                "icon": "https://secure-media1.hotstar.com/t_web_vl_1x/r1/thumbs/PCTV/79/1770002579/PCTV-1770002579-vl.jpg",
                "lice": "abc",
                "link": "1770002579"
            },
            {
                "direct": false,
                "drm": false,
                "name": "MLA Fatakeshto",
                "icon": "https://secure-media1.hotstar.com/t_web_vl_1x/r1/thumbs/PCTV/80/1770002580/PCTV-1770002580-vl.jpg",
                "lice": "abc",
                "link": "1770002580"
            },
            {
                "direct": false,
                "drm": false,
                "name": "Iti Mrinalini",
                "icon": "https://secure-media1.hotstar.com/t_web_vl_1x/r1/thumbs/PCTV/27/1770002727/PCTV-1770002727-vl.jpg",
                "lice": "abc",
                "link": "1770002727"
            },
            {
                "direct": false,
                "drm": false,
                "name": "Arshinagar",
                "icon": "https://secure-media1.hotstar.com/t_web_vl_1x/r1/thumbs/PCTV/62/1770002662/PCTV-1770002662-vl.jpg",
                "lice": "abc",
                "link": "1770002662"
            },
            {
                "direct": false,
                "drm": false,
                "name": "Noor Jahaan",
                "icon": "https://secure-media1.hotstar.com/t_web_vl_1x/r1/thumbs/PCTV/23/1000216523/PCTV-1000216523-vl.jpg",
                "lice": "abc",
                "link": "1000216523"
            },
            {
                "direct": false,
                "drm": false,
                "name": "Pratyaghat",
                "icon": "https://secure-media1.hotstar.com/t_web_vl_1x/r1/thumbs/PCTV/78/1770002778/PCTV-1770002778-vl.jpg",
                "lice": "abc",
                "link": "1770002778"
            },
            {
                "direct": false,
                "drm": false,
                "name": "Autograph",
                "icon": "https://secure-media1.hotstar.com/t_web_vl_1x/r1/thumbs/PCTV/63/1770002663/PCTV-1770002663-vl.jpg",
                "lice": "abc",
                "link": "1770002663"
            },
            {
                "direct": false,
                "drm": false,
                "name": "Cinemawala",
                "icon": "https://secure-media1.hotstar.com/t_web_vl_1x/r1/thumbs/PCTV/89/1770002989/PCTV-1770002989-vl.jpg",
                "lice": "abc",
                "link": "1770002989"
            },
            {
                "direct": false,
                "drm": false,
                "name": "Amanush",
                "icon": "https://secure-media1.hotstar.com/t_web_vl_1x/r1/thumbs/PCTV/60/1770002660/PCTV-1770002660-vl.jpg",
                "lice": "abc",
                "link": "1770002660"
            },
            {
                "direct": false,
                "drm": false,
                "name": "Refugee",
                "icon": "https://secure-media1.hotstar.com/t_web_vl_1x/r1/thumbs/PCTV/50/1770002750/PCTV-1770002750-vl.jpg",
                "lice": "abc",
                "link": "1770002750"
            },
            {
                "direct": false,
                "drm": false,
                "name": "Ajab Gayer Ajab Katha",
                "icon": "https://secure-media1.hotstar.com/t_web_vl_1x/r1/thumbs/PCTV/35/1770002635/PCTV-1770002635-vl.jpg",
                "lice": "abc",
                "link": "1770002635"
            },
            {
                "direct": false,
                "drm": false,
                "name": "Kistimaat",
                "icon": "https://secure-media1.hotstar.com/t_web_vl_1x/r1/thumbs/PCTV/70/1000104570/PCTV-1000104570-vl.jpg",
                "lice": "abc",
                "link": "1000104570"
            },
            {
                "direct": false,
                "drm": false,
                "name": "The Last Drop - India's Water Crisis",
                "icon": "https://img1.hotstar.com/image/upload/f_auto,t_web_vl_1x/sources/r1/cms/prod/1405/71405-v",
                "lice": "abc",
                "link": "1770005023"
            },
            {
                "direct": false,
                "drm": false,
                "name": "Rocky",
                "icon": "https://secure-media1.hotstar.com/t_web_vl_1x/r1/thumbs/PCTV/43/1770002743/PCTV-1770002743-vl.jpg",
                "lice": "abc",
                "link": "1770002743"
            },
            {
                "direct": false,
                "drm": false,
                "name": "Tara",
                "icon": "https://secure-media1.hotstar.com/t_web_vl_1x/r1/thumbs/PCTV/98/1770002698/PCTV-1770002698-vl.jpg",
                "lice": "abc",
                "link": "1770002698"
            },
            {
                "direct": false,
                "drm": false,
                "name": "Hemanter Pakhi",
                "icon": "https://secure-media1.hotstar.com/t_web_vl_1x/r1/thumbs/PCTV/12/1770015112/PCTV-1770015112-vl.jpg",
                "lice": "abc",
                "link": "1770015112"
            },
            {
                "direct": false,
                "drm": false,
                "name": "Barood",
                "icon": "https://secure-media1.hotstar.com/t_web_vl_1x/r1/thumbs/PCTV/63/1770004363/PCTV-1770004363-vl.jpg",
                "lice": "abc",
                "link": "1770004363"
            },
            {
                "direct": false,
                "drm": false,
                "name": "Diet",
                "icon": "https://secure-media1.hotstar.com/t_web_vl_1x/r1/thumbs/PCTV/42/1770002742/PCTV-1770002742-vl.jpg",
                "lice": "abc",
                "link": "1770002742"
            },
            {
                "direct": false,
                "drm": false,
                "name": "Music of Satyajit Ray",
                "icon": "https://secure-media1.hotstar.com/t_web_vl_1x/r1/thumbs/PCTV/39/1770015139/PCTV-1770015139-vl.jpg",
                "lice": "abc",
                "link": "1770015139"
            },
            {
                "direct": false,
                "drm": false,
                "name": "Love",
                "icon": "https://secure-media1.hotstar.com/t_web_vl_1x/r1/thumbs/PCTV/34/1770002734/PCTV-1770002734-vl.jpg",
                "lice": "abc",
                "link": "1770002734"
            },
            {
                "direct": false,
                "drm": false,
                "name": "Sathi Amar",
                "icon": "https://secure-media1.hotstar.com/t_web_vl_1x/r1/thumbs/PCTV/22/1770017022/PCTV-1770017022-vl.jpg",
                "lice": "abc",
                "link": "1770017022"
            },
            {
                "direct": false,
                "drm": false,
                "name": "Jackpot",
                "icon": "https://secure-media1.hotstar.com/t_web_vl_1x/r1/thumbs/PCTV/77/1770002577/PCTV-1770002577-vl.jpg",
                "lice": "abc",
                "link": "1770002577"
            },
            {
                "direct": false,
                "drm": false,
                "name": "Aaghat",
                "icon": "https://secure-media1.hotstar.com/t_web_vl_1x/r1/thumbs/PCTV/99/1000203599/PCTV-1000203599-vl.jpg",
                "lice": "abc",
                "link": "1000203599"
            },
            {
                "direct": false,
                "drm": false,
                "name": "Sakaler Rang",
                "icon": "https://secure-media1.hotstar.com/t_web_vl_1x/r1/thumbs/PCTV/74/1770002674/PCTV-1770002674-vl.jpg",
                "lice": "abc",
                "link": "1770002674"
            },
            {
                "direct": false,
                "drm": false,
                "name": "Devdoot",
                "icon": "https://secure-media1.hotstar.com/t_web_vl_1x/r1/thumbs/PCTV/67/1770004367/PCTV-1770004367-vl.jpg",
                "lice": "abc",
                "link": "1770004367"
            },
            {
                "direct": false,
                "drm": false,
                "name": "Mayer Aasirbad",
                "icon": "https://secure-media1.hotstar.com/t_web_vl_1x/r1/thumbs/PCTV/69/1770002769/PCTV-1770002769-vl.jpg",
                "lice": "abc",
                "link": "1770002769"
            },
            {
                "direct": false,
                "drm": false,
                "name": "Clerk",
                "icon": "https://secure-media1.hotstar.com/t_web_vl_1x/r1/thumbs/PCTV/85/1770002685/PCTV-1770002685-vl.jpg",
                "lice": "abc",
                "link": "1770002685"
            },
            {
                "direct": false,
                "drm": false,
                "name": "Sanghat",
                "icon": "https://secure-media1.hotstar.com/t_web_vl_1x/r1/thumbs/PCTV/45/1770015145/PCTV-1770015145-vl.jpg",
                "lice": "abc",
                "link": "1770015145"
            },
            {
                "direct": false,
                "drm": false,
                "name": "Sanskar",
                "icon": "https://secure-media1.hotstar.com/t_web_vl_1x/r1/thumbs/PCTV/73/1770015273/PCTV-1770015273-vl.jpg",
                "lice": "abc",
                "link": "1770015273"
            },
            {
                "direct": false,
                "drm": false,
                "name": "Tut's  Treasures - The Last Pharaoh",
                "icon": "https://img1.hotstar.com/image/upload/f_auto,t_web_vl_1x/sources/r1/cms/prod/6543/416543-v",
                "lice": "abc",
                "link": "1000232905"
            },
            {
                "direct": false,
                "drm": false,
                "name": "Killer Tigers of India",
                "icon": "https://img1.hotstar.com/image/upload/f_auto,t_web_vl_1x/sources/r1/cms/prod/4220/354220-v",
                "lice": "abc",
                "link": "1000232942"
            },
            {
                "direct": false,
                "drm": false,
                "name": "Extreme Tech: JSW Blast Furnace",
                "icon": "https://img1.hotstar.com/image/upload/f_auto,t_web_vl_1x/sources/r1/cms/prod/8982/398982-v",
                "lice": "abc",
                "link": "1000234424"
            },
            {
                "direct": false,
                "drm": false,
                "name": "Hubble's Amazing Universe",
                "icon": "https://img1.hotstar.com/image/upload/f_auto,t_web_vl_1x/sources/r1/cms/prod/8229/388229-v",
                "lice": "abc",
                "link": "1000234015"
            },
            {
                "direct": false,
                "drm": false,
                "name": "Inside Tirumala Tirupati",
                "icon": "https://img1.hotstar.com/image/upload/f_auto,t_web_vl_1x/sources/r1/cms/prod/1623/71623-v",
                "lice": "abc",
                "link": "1770005014"
            },
            {
                "direct": false,
                "drm": false,
                "name": "Haami",
                "icon": "https://img1.hotstar.com/image/upload/f_auto,t_web_vl_1x/sources/r1/cms/prod/2026/132026-v",
                "lice": "abc",
                "link": "1000223682"
            },
            {
                "direct": false,
                "drm": false,
                "name": "India Remonetized",
                "icon": "https://img1.hotstar.com/image/upload/f_auto,t_web_vl_1x/sources/r1/cms/prod/1375/71375-v",
                "lice": "abc",
                "link": "1770005016"
            },
            {
                "direct": false,
                "drm": false,
                "name": "Himmat",
                "icon": "https://img1.hotstar.com/image/upload/f_auto,t_web_vl_1x/sources/r1/cms/prod/5262/445262-v",
                "lice": "abc",
                "link": "1000236012"
            },
            {
                "direct": false,
                "drm": false,
                "name": "Inside North Korea: Then And Now With Lisa Ling",
                "icon": "https://img1.hotstar.com/image/upload/f_auto,t_web_vl_1x/sources/r1/cms/prod/2720/462720-v",
                "lice": "abc",
                "link": "1260005303"
            },
            {
                "direct": false,
                "drm": false,
                "name": "Mon Jaane Na",
                "icon": "https://img1.hotstar.com/image/upload/f_auto,t_web_vl_1x/sources/r1/cms/prod/2800/432800-v",
                "lice": "abc",
                "link": "1000235580"
            }
        ]
    }
]